﻿STT,ChucNang,MaCNCT,MaQuyUoc,ChuThich,Color,MaNhom,TenNhom,Color_Nhom,MaDonVi,DienTich,TyLeDVO,TyLeChung
I,Đất đơn vị ở,DVO,DVO,Đất đơn vị ở,,,,,DVO,,,
A,Đất nhóm ở,NNO,NNO,Đất nhóm ở,#A57C00,,,,DVO,,,
1,Nhà ở liên kế,OLK,OLK,Đất nhà ở liên kế,#A55200,NNO,Đất ở,#A57C00,DVO,,,
2,Nhà ở biệt thự,OBT,OBT,Đất nhà ở biệt thự,#4C4C00,NNO,Đất ở,#A57C00,DVO,,,
3,Nhà ở xã hội,NOXH,NOXH,Đất nhà ở xã hội,#FF7F00,NNO,Đất ở,#A57C00,DVO,,,
4,Nhà ở chung cư,OCC,OCC,Đất nhà ở chung cư,#FFBF00,NNO,Đất ở,#A57C00,DVO,,,
B,Đất giáo dục cấp đơn vị ở,GDDVO,GD1,Đất giáo dục cấp đơn vị ở,#7F3F3F,,,,DVO,,,
1,Trường mầm non,GD1A,GD1,Đất trường mầm non,#7F3F3F,GD,Đất giáo dục,#7F3F3F,DVO,,,
2,Trường tiểu học,GD1B,GD1,Đất trường tiểu học,#7F3F3F,GD,Đất giáo dục,#7F3F3F,DVO,,,
3,Trường trung học cơ sở,GD1C,GD1,Đất trường trung học cơ sở,#7F3F3F,GD,Đất giáo dục,#7F3F3F,DVO,,,
C,Đất công trình công cộng cấp đơn vị ở,CCDVO,CCDVO,Đất công trình công cộng cấp đơn vị ở,#FF0000,,,,DVO,,,
1,Đất thương mại - dịch vụ cấp đơn vị ở,DVOTM,CCDVO,Đất công trình công cộng cấp đơn vị ở,#FF0000,TM,Đất thương mại,#FF6600,DVO,,,
2,Đất văn hóa cấp đơn vị ở,DVONVH,CCDVO,Đất công trình công cộng cấp đơn vị ở,#FF0000,CTCC,Đất công cộng,#FF0000,DVO,,,
3,Đất y tế cấp đơn vị ở,DVOYT,CCDVO,Đất công trình công cộng cấp đơn vị ở,#FF9F7F,CTCC,Đất công cộng,#FF00FF,DVO,,,
4,Đất hành chính cấp đơn vị ở,DVOHC,CCDVO,Đất công trình công cộng cấp đơn vị ở,#FF0000,CTCC,Đất công cộng,#FF0000,DVO,,,
5,Đất công trình TDTT cấp đơn vị ở,DVOTDTT,CCDVO,Đất công trình công cộng cấp đơn vị ở,#FF0000,CTCC,Đất công cộng,#FF0000,DVO,,,
6,Đất công trình công cộng đơn vị ở chung,CCDVOC,CCDVO,Đất công trình công cộng cấp đơn vị ở,#FF0000,CTCC,Đất công cộng,#FF0000,DVO,,,
7,Đất công trình công cộng đơn vị ở khác,CCDVOK,CCDVO,Đất công trình công cộng cấp đơn vị ở,#FF0000,CTCC,Đất công cộng,#FF0000,DVO,,,
D,Đất sử dụng hỗn hợp,HH,HH,Đất sử dụng hỗn hợp,#FF9F7F,,,,DVO,,,
1,Đất ở hỗn hợp (Trong đất hỗn hợp),OCC-HH,HH,Đất sử dụng hỗn hợp,#FF9F7F,NNO,Đất ở,#A57C00,DVO,,,
2,Đất thương mại - dịch vụ cấp đơn vị ở (Trong đất hỗn hợp),DVOTM-HH,HH,Đất sử dụng hỗn hợp,#FF9F7F,TM,Đất thương mại,#FF6600,DVO,,,
3,Đất văn hóa cấp đơn vị ở (Trong đất hỗn hợp),DVONVH-HH,HH,Đất sử dụng hỗn hợp,#FF9F7F,CTCC,Đất công cộng,#FF0000,DVO,,,
4,Đất y tế cấp đơn vị ở (Trong đất hỗn hợp),DVOYT-HH,HH,Đất sử dụng hỗn hợp,#FF9F7F,CTCC,Đất công cộng,#FF00FF,DVO,,,
5,Đất hành chính cấp đơn vị ở (Trong đất hỗn hợp),DVOHC-HH,HH,Đất sử dụng hỗn hợp,#FF9F7F,CTCC,Đất công cộng,#FF0000,DVO,,,
6,Đất công trình TDTT cấp đơn vị ở (Trong đất hỗn hợp),DVOTDTT-HH,HH,Đất sử dụng hỗn hợp,#FF9F7F,CTCC,Đất công cộng,#FF0000,DVO,,,
7,Đất công trình công cộng đơn vị ở chung (Trong đất hỗn hợp),CCDVOC-HH,HH,Đất sử dụng hỗn hợp,#FF9F7F,CTCC,Đất công cộng,#FF0000,DVO,,,
8,Đất công trình công cộng đơn vị ở khác (Trong đất hỗn hợp),CCDVOK-HH,HH,Đất sử dụng hỗn hợp,#FF9F7F,CTCC,Đất công cộng,#FF0000,DVO,,,
9,Trường mẫu giáo (Trong đất hỗn hợp),GD1A-HH,HH,Đất sử dụng hỗn hợp,#FF9F7F,GD,Đất giáo dục,#7F3F3F,DVO,,,
10,Trường tiểu học (Trong đất hỗn hợp),GD1B-HH,HH,Đất sử dụng hỗn hợp,#FF9F7F,GD,Đất giáo dục,#7F3F3F,DVO,,,
11,Trường trung học cơ sở (Trong đất hỗn hợp),GD1C-HH,HH,Đất sử dụng hỗn hợp,#FF9F7F,GD,Đất giáo dục,#7F3F3F,DVO,,,
12,Đất cây xanh (Trong đất hỗn hợp),CXDVO-HH,HH,Đất sử dụng hỗn hợp,#FF9F7F,CX,Đất cây xanh,#264C00,DVO,,,
13,Đất hạ tầng kỹ thuật (Trong đất hỗn hợp),HTKT-HH,HH,Đất sử dụng hỗn hợp,#FF9F7F,HTKT,Đất hạ tầng,#5F3F7F,DVO,,,
14,Đất cơ quan công ty (Trong đất hỗn hợp),CQCT-HH,HH,Đất sử dụng hỗn hợp,#FF9F7F,DK,Đất khác,#FFFFFF,DVO,,,
E,Đất cây xanh đơn vị ở,CXDVO,CXDVO,Đất cây xanh đơn vị ở,#264C00,CX,Đất cây xanh,#264C00,DVO,,,
F,Đất giao thông cấp đơn vị ở,GTDVO,DGT,Đất giao thông,#B5B5B5,DGT,Đất giao thông,#B5B5B5,DVO,,,
II,Đất ngoài đơn vị ở,NDVO,NDVO,Đất ngoài đơn vị ở,,,,,NDVO,,,
A,Đất giáo dục cấp đô thị,GDDT,GDDT,Đất giáo dục cấp đô thị,,,,,NDVO,,,
1,Trường THPT,GD2,GD2,Đất trường THPT,#7F1F00,GD,Đất giáo dục,#7F3F3F,NDVO,,,
2,"Trường trung cấp, cao đẳng, đại học,..",NCDT,NCDT,"Đất trường trung cấp, cao đẳng, đại học,..",#005F7F,GD,Đất giáo dục,#7F3F3F,NDVO,,,
B,Đất công trình công cộng cấp đô thị,CCDT,CCDT,Đất công trình công cộng cấp đô thị,#FF0000,,,,NDVO,,,
1,Đất thương mại - dịch vụ cấp đô thị,DVTM,CCDT,Đất công trình công cộng cấp đô thị,#FF0000,TM,Đất thương mại,#FF6600,NDVO,,,
2,Đất văn hóa cấp đô thị,NVH,CCDT,Đất công trình công cộng cấp đô thị,#FF0000,CTCC,Đất công cộng,#FF0000,NDVO,,,
3,Đất y tế cấp đô thị,BV,CCDT,Đất công trình công cộng cấp đô thị,#FF0000,CTCC,Đất công cộng,#FF0000,NDVO,,,
4,Đất hành chính cấp đô thị,TTHC,CCDT,Đất công trình công cộng cấp đô thị,#FF0000,CTCC,Đất công cộng,#FF0000,NDVO,,,
5,Đất công trình TDTT cấp đô thị,CCTDTT,CCDT,Đất công trình công cộng cấp đô thị,#FF0000,CTCC,Đất công cộng,#FF0000,NDVO,,,
6,Đất công trình công cộng đô thị chung,CCDTC,CCDT,Đất công trình công cộng cấp đô thị,#FF0000,CTCC,Đất công cộng,#FF0000,NDVO,,,
7,Đất công trình công cộng đô thị khác,CCDTK,CCDT,Đất công trình công cộng cấp đô thị,#FF0000,CTCC,Đất công cộng,#FF0000,NDVO,,,
C,Đất du lịch,DL,DL,Đất du lịch,#FF00FF,TM,Đất thương mại,#FF6600,NDVO,,,
D,Đất cơ quan công ty,CQCT,CQCT,Đất cơ quan công ty,#7F3F00,DK,Đất khác,#FFFFFF,NDVO,,,
E,Đất tôn giáo di tích,TGDT,TGDT,Đất tôn giáo di tích,#4C0000,DK,Đất khác,#FFFFFF,NDVO,,,
F,Đất cây xanh cấp đô thị,CXDT,CXDT,Đất cây xanh cấp đô thị,#52A500,CX,Đất cây xanh,#264C00,NDVO,,,
G,"Đất cây xanh chuyên đề, quảng trường",CXCD,CXCD,"Đất cây xanh chuyên đề, quảng trường",#007F00,CX,Đất cây xanh,#264C00,NDVO,,,
H,"Đất cây xanh cách ly, hành lang bảo vệ",CXCL,CXCL,"Đất cây xanh cách ly, hành lang bảo vệ",#004C39,CX,Đất cây xanh,#264C00,NDVO,,,
I,Đất an ninh quốc phòng,ANQP,ANQP,Đất an ninh quốc phòng,#212613,DK,Đất khác,#CCCCCC,NDVO,,,
K,Đất công trình đầu mối hạ tầng kỹ thuật,HTKT,HTKT,Đất công trình đầu mối hạ tầng kỹ thuật,#5F3F7F,HTKT,Đất hạ tầng,#5F3F7F,NDVO,,,
L,Đất kho tàng bến bãi,KTBB,KTBB,Đất kho tàng bến bãi,#26267E,DK,Đất khác,#FFFFFF,NDVO,,,
M,Đất công nghiệp,CN,CN,Đất công nghiệp,#5200A5,DK,Đất khác,#FFFFFF,NDVO,,,
N,Đất giao thông ngoài đơn vị ở,GTNDVO,DGT,Đất giao thông,#B5B5B5,DGT,Đất giao thông,#B5B5B5,NDVO,,,
O,Mặt nước,MN,MN,Mặt nước,#0052A5,MN,Mặt nước,#0052A5,NDVO,,,
P,Đất khác,DK,DK,Đất khác,#FFFFFF,DK,Đất khác,#FFFFFF,NDVO,,,
